col.0: MtotZAMS/Msun  col.1:num mergers
430491389.7510028 128
col.0:ID col.1:m1ZAMS/Msun col.2:m2ZAMS/Msun col.3:m1rem/Msun col.4:m2rem/Msun col.5:m1rem+m2rem/Msun col.6:delay_time/Myr col.7:sma/Rsun col.8:ecc col.9:kick/kms col.10:kick/kms col.11:cmu1 col.12:cmu2 col.13:v1x/kms col.14:v1y/kms col.15:v1z/kms col.16:v2x/kms col.17:v2y/kms col.18:v2z/kms col.19:time_SN1/Myr col.20:time_SN2/Myr
0_6942 50.9151 50.8356 8.1908 8.1438 16.334600000000002 4681.4536 13.365 0.021515 0.0 0.0 1.0 1.0 7.607 0.0 0.0 7.245 0.1446 -0.0 4.957 4.962
0_80347 57.0253 56.9464 5.7257 8.7044 14.4301 12221.5752 15.485 0.080205 44.5575 0.0 0.9999 1.0 73.91 7.123 1.944 5.912 -0.342 0.0 4.717 4.719
0_175923 45.4054 45.341 7.5535 7.516 15.0695 13958.5068 16.698 0.06533 0.0 0.0 1.0 1.0 7.121 0.0 0.0 7.122 -0.07208 -0.0 5.25 5.255
0_246133 51.3004 50.1324 8.6794 8.2698 16.949199999999998 1115.3656 9.5834 0.016128 0.0 0.0 1.0 1.0 8.854 0.0 0.0 8.566 -0.1297 0.0 4.92 4.983
0_466220 57.9688 56.4862 6.1973 5.9055 12.1028 4417.7163 10.747 0.15539 15.3104 54.0876 0.9998 0.9994 80.67 2.8 4.93 74.88 21.28 -7.115 4.666 4.72
0_573904 63.2143 61.7437 6.9045 6.4958 13.4003 523.5057 7.85 0.41373 21.317 28.5915 0.9999 0.9996 106.5 4.681 5.716 102.7 13.82 12.38 4.511 4.556
0_607057 48.5552 48.1153 8.0958 7.9262 16.022 2823.4556 11.595 0.016765 0.0 0.0 1.0 1.0 8.284 -0.0 -0.0 7.888 0.1256 0.0 5.064 5.091
0_719151 50.0383 49.935 8.0545 8.0032 16.0577 13431.0938 17.327 0.057937 0.0 0.0 1.0 1.0 6.758 0.0 0.0 6.722 -0.1332 -0.0 4.999 5.005
0_917771 44.5253 44.4892 7.5085 7.4775 14.986 3810.1252 11.894 0.027005 0.0 0.0 1.0 1.0 8.437 -0.0 -0.0 8.018 0.1956 -0.0 5.302 5.305
0_1021228 53.4824 53.4196 8.3748 8.339 16.7138 12920.4717 17.625 0.0058087 0.0 0.0 1.0 1.0 6.542 0.0 0.0 6.192 0.03573 -0.0 4.849 4.852
0_1226873 50.8509 50.7858 8.2644 8.2181 16.4825 1411.4524 9.9561 0.009988 0.0 0.0 1.0 1.0 8.764 0.0 0.0 8.307 0.0816 -0.0 4.958 4.961
0_1277035 109.8837 107.6905 10.5973 9.9514 20.5487 462.6533 9.0194 0.13492 13.6157 8.3026 1.0 1.0 45.27 3.951 -2.859 47.1 -1.683 -0.9912 3.903 3.921
0_1886201 45.3478 45.2935 7.574 7.5378 15.111799999999999 7118.3447 14.034 0.024696 0.0 0.0 1.0 1.0 7.738 0.0 0.0 7.342 0.1664 -0.0 5.252 5.256
0_2458238 47.1326 43.6831 6.2831 7.9903 14.2734 1705.6349 9.8184 0.23268 40.6635 0.0 0.9989 1.0 84.71 5.381 13.94 6.652 1.235 0.0 5.077 5.311
0_2790128 43.8353 41.0131 5.8346 7.6686 13.5032 956.7695 8.0555 0.20861 21.1019 0.0 0.9997 1.0 94.58 1.27 7.718 7.264 0.8525 -0.0 5.28 5.501
0_2894026 58.2032 58.112 5.8984 5.8633 11.7617 10458.0781 12.866 0.057549 32.7064 34.5212 0.9999 0.9989 83.15 8.485 2.966 59.41 -15.28 -10.17 4.673 4.676
0_2908676 45.0407 44.9727 8.0668 8.0038 16.0706 21.5132 3.213 0.060089 0.0 0.0 1.0 1.0 15.64 -0.0 -0.0 15.68 -0.2027 -0.0 5.256 5.26
0_3124911 43.5244 40.843 8.7264 7.5648 16.2912 938.3922 8.9131 0.048753 0.0 0.0 1.0 1.0 9.433 -0.0 0.0 9.815 0.2448 0.0 5.304 5.519
0_3274846 51.8016 50.7019 8.5604 8.2072 16.7676 8047.0015 15.65 0.015473 0.0 0.0 1.0 1.0 6.98 -0.0 0.0 6.714 0.09812 0.0 4.903 4.961
0_3310052 44.6461 43.8281 8.1678 7.7955 15.9633 70.0788 4.514 0.060486 0.0 0.0 1.0 1.0 13.32 -0.0 0.0 13.54 -0.15 -0.0 5.267 5.33
0_3409978 48.7125 46.3756 5.7751 8.0093 13.7844 13255.6826 16.088 0.23914 6.6382 0.0 1.0 1.0 67.28 -2.145 1.009 6.593 -1.375 -0.0 5.021 5.164
0_3453282 42.2648 42.2066 7.5409 7.4872 15.028099999999998 82.957 4.5007 0.018601 0.0 0.0 1.0 1.0 13.69 0.0 0.0 12.96 0.2298 -0.0 5.447 5.451
0_3918008 48.2122 47.0929 8.2381 7.848 16.0861 8880.6934 15.579 0.041844 0.0 0.0 1.0 1.0 7.162 0.0 0.0 7.055 0.2056 -0.0 5.07 5.141
1_213467 51.579 51.5231 8.2236 8.1875 16.411099999999998 7365.3408 15.053 0.0084396 0.0 0.0 1.0 1.0 7.146 0.0 0.0 6.762 -0.05639 0.0 4.929 4.932
1_298576 45.104 43.6862 8.0725 7.481 15.5535 11110.3682 16.103 0.054149 0.0 0.0 1.0 1.0 7.178 0.0 0.0 7.273 -0.1858 -0.0 5.234 5.348
1_318445 25.4605 25.0743 5.7542 7.59 13.3442 1846.5464 9.0532 0.037469 27.7796 0.0 -0.2124 1.0 11.26 2.372 -0.5123 8.57 0.0 0.0 7.696 7.81
1_588904 46.924 44.7003 8.6857 7.8409 16.526600000000002 2633.1782 11.688 0.058231 0.0 0.0 1.0 1.0 8.187 0.0 0.0 8.491 0.04697 0.0 5.112 5.263
1_1069516 45.4415 42.0304 6.0861 7.909 13.9951 5556.2793 12.881 0.20798 28.2938 0.0 0.9994 1.0 76.2 6.325 -8.351 5.958 -1.032 0.0 5.172 5.413
1_1101537 48.4917 47.8839 8.0816 7.8745 15.9561 8760.3555 15.408 0.00066286 0.0 0.0 1.0 1.0 7.213 0.0 -0.0 6.842 0.001429 0.0 5.066 5.103
1_1231890 58.3168 54.2366 7.2261 5.9689 13.195 5881.022 15.351 0.48882 14.5105 56.211 1.0 0.9989 80.18 5.455 -1.401 62.98 5.917 13.25 4.625 4.784
1_1802486 52.0116 50.6225 5.7374 8.3935 14.1309 12365.5479 16.719 0.31337 39.2259 0.0 0.9978 1.0 63.89 2.136 -14.31 7.654 0.4188 0.0 4.885 4.954
1_1949343 43.4818 42.0681 8.3046 7.6769 15.9815 63.2458 4.3795 0.029731 0.0 0.0 1.0 1.0 13.5 0.0 -0.0 13.36 -0.3298 -0.0 5.331 5.441
1_2061532 49.5798 48.7164 8.3348 8.0331 16.3679 3306.9358 12.293 0.058971 0.0 0.0 1.0 1.0 7.981 -0.0 -0.0 8.057 -0.0927 -0.0 5.004 5.055
1_2077807 49.4859 47.3053 5.8366 8.1815 14.0181 6419.2666 14.396 0.34759 41.3614 0.0 1.0 1.0 64.57 9.162 2.232 5.129 1.765 -0.0 4.983 5.11
1_2288519 47.1284 47.0679 7.7703 7.7316 15.5019 6979.8188 14.262 0.053408 0.0 0.0 1.0 1.0 7.581 0.0 0.0 7.456 -0.2128 0.0 5.148 5.152
1_2319482 53.5936 52.9399 5.7275 8.5435 14.271 3611.6882 12.176 0.29859 37.0987 0.0 0.999 1.0 71.03 -3.641 11.68 5.798 1.781 -0.0 4.832 4.862
1_2422701 34.0253 32.4261 9.4201 6.3006 15.7207 3697.0298 1682.1 0.9986 25.034 55.2214 0.9004 -0.8621 12.12 1.06 2.033 24.66 -6.156 0.7477 6.101 6.289
1_2628502 49.0697 47.8334 8.4083 8.0156 16.4239 5692.9268 14.135 0.053684 0.0 0.0 1.0 1.0 7.456 -0.0 0.0 7.473 -0.1657 -0.0 5.021 5.096
1_2737845 50.5718 50.4986 8.095 8.0545 16.149500000000003 12986.1562 17.219 0.036167 0.0 0.0 1.0 1.0 6.747 0.0 0.0 6.504 -0.1865 -0.0 4.975 4.979
1_2890876 48.9758 47.8008 8.4575 8.0301 16.4876 1696.0059 10.457 0.058863 0.0 0.0 1.0 1.0 8.629 0.0 0.0 8.774 0.07416 0.0 5.025 5.098
1_3253329 47.3777 47.0764 7.8988 7.7784 15.6772 4393.0674 12.776 0.050788 0.0 0.0 1.0 1.0 7.989 0.0 -0.0 7.849 0.2278 -0.0 5.129 5.149
1_3631020 46.9862 43.6677 6.062 8.0175 14.0795 12261.791 15.343 0.095106 50.4863 0.0 0.9985 1.0 77.31 8.01 10.4 6.412 0.5519 0.0 5.089 5.307
1_3638010 43.9692 42.3674 8.1979 7.5096 15.7075 948.0186 8.7062 0.054018 0.0 0.0 1.0 1.0 9.701 -0.0 0.0 9.905 -0.2426 -0.0 5.296 5.427
1_3688992 53.5462 53.4837 8.4456 8.4053 16.850900000000003 4371.6353 13.482 0.058953 0.0 0.0 1.0 1.0 7.458 0.0 -0.0 7.476 -0.04377 0.0 4.845 4.848
1_3822552 53.5831 52.9203 8.5698 8.3653 16.9351 9429.8398 16.47 0.058505 0.0 0.0 1.0 1.0 6.769 -0.0 0.0 6.812 0.001274 0.0 4.836 4.868
1_3915537 106.7416 82.7266 16.8804 8.1187 24.999100000000002 2012.6406 14.618 0.13022 0.0 6.2432 1.0 1.0 5.798 0.0 0.0 51.61 -0.3776 -1.853 3.875 4.141
2_168590 52.1592 52.0917 8.3381 8.2953 16.6334 3441.0461 12.568 0.059563 0.0 0.0 1.0 1.0 7.778 0.0 -0.0 7.795 -0.05554 0.0 4.9 4.903
2_190657 44.4896 42.2763 8.402 7.5659 15.9679 10876.7891 16.336 0.05873 0.0 0.0 1.0 1.0 7.081 0.0 0.0 7.303 -0.09357 -0.0 5.253 5.424
2_282898 46.7031 46.2848 7.8444 7.6826 15.527000000000001 7143.2451 14.362 0.052205 0.0 0.0 1.0 1.0 7.582 0.0 -0.0 7.471 0.2137 -0.0 5.164 5.193
2_398383 46.1104 46.054 7.7669 7.7223 15.4892 1200.3529 9.1567 0.063716 0.0 0.0 1.0 1.0 9.464 0.0 -0.0 9.484 -0.08674 -0.0 5.203 5.207
2_471509 44.9793 44.9038 7.5407 7.495 15.0357 7050.9927 13.957 0.037538 0.0 0.0 1.0 1.0 7.787 0.0 -0.0 7.475 -0.2261 0.0 5.274 5.28
2_584110 53.6852 53.5878 8.4968 8.4468 16.9436 2922.3044 12.233 0.058878 0.0 0.0 1.0 1.0 7.811 0.0 -0.0 7.834 0.01701 -0.0 4.838 4.842
2_716451 74.446 72.9714 7.5583 7.1713 14.7296 2709.3547 12.2 0.36015 33.3208 21.2751 0.9998 0.9997 64.35 -1.797 6.39 67.59 -22.65 7.259 4.28 4.31
2_960379 50.7123 46.8476 6.5091 8.4944 15.0035 7945.2856 14.509 0.12994 26.3387 0.0 0.9999 1.0 73.3 7.226 -2.269 5.65 -0.5332 -0.0 4.905 5.108
2_1034179 45.8851 45.8434 7.6138 7.5844 15.1982 9479.8135 15.161 0.011011 0.0 0.0 1.0 1.0 7.419 0.0 -0.0 6.989 -0.07563 -0.0 5.221 5.224
2_1234981 45.4874 44.6787 8.1203 7.7626 15.8829 207.1561 5.9749 0.055319 0.0 0.0 1.0 1.0 11.59 0.0 -0.0 11.67 -0.2743 -0.0 5.22 5.279
2_1258597 55.8519 55.753 8.6446 8.5967 17.241300000000003 5930.2144 14.802 0.043374 0.0 0.0 1.0 1.0 7.03 0.0 -0.0 6.881 0.1912 0.0 4.759 4.763
2_1293147 71.4262 71.0 6.9613 6.8282 13.7895 4256.3008 12.441 0.29125 25.9427 16.6246 0.9998 1.0 83.82 -0.08503 -5.424 62.97 -0.4626 1.798 4.345 4.354
2_1679586 45.175 42.8096 8.5576 7.6997 16.2573 6886.2988 14.708 0.045341 0.0 0.0 1.0 1.0 7.397 -0.0 -0.0 7.473 -0.2033 0.0 5.209 5.381
2_2359102 47.1711 45.9932 8.2135 7.8115 16.025 4583.3608 13.134 0.056112 0.0 0.0 1.0 1.0 7.835 0.0 0.0 7.877 -0.1656 -0.0 5.121 5.2
2_2438296 77.1399 71.7347 8.6865 7.0474 15.7339 13383.5176 22.001 0.50372 41.8439 23.3667 1.0 0.9999 37.25 -2.893 -2.161 57.46 6.38 4.239 4.218 4.327
2_2737029 72.4832 69.7095 7.8203 6.9976 14.8179 1422.9725 9.2209 0.045061 26.7561 40.0934 0.9996 0.9983 79.16 5.17 8.836 66.54 -12.95 -15.66 4.305 4.369
2_2859367 133.2282 44.2419 22.7218 7.2222 29.944000000000003 7635.1807 3785.4 0.99885 0.0 30.4768 1.0 -0.2444 0.3084 -0.03054 0.0 9.802 -0.977 0.219 3.735 5.369
2_3172325 44.2228 41.4199 5.748 7.6447 13.392700000000001 10310.6631 15.133 0.28494 32.3912 0.0 0.9989 1.0 67.64 1.257 -11.11 6.539 1.884 0.0 5.255 5.473
2_3559351 75.2927 70.3092 8.6851 7.1282 15.8133 2194.634 11.425 0.25492 9.4531 12.18 1.0 1.0 60.08 -2.59 0.07128 67.48 -8.576 2.084 4.246 4.349
2_3646398 44.9768 42.5341 8.5649 7.4951 16.06 11435.873 16.584 0.040289 0.0 0.0 1.0 1.0 6.959 0.0 -0.0 7.12 0.1984 -0.0 5.219 5.413
2_3863832 45.3604 45.1574 8.1234 8.0082 16.1316 26.3281 3.4348 0.050013 0.0 0.0 1.0 1.0 15.14 0.0 -0.0 14.93 -0.4108 -0.0 5.235 5.248
3_85717 55.8232 53.2201 6.8209 6.0299 12.8508 212.0508 5.3192 0.20727 26.3229 22.4213 1.0 0.9999 121.7 -9.338 -3.778 93.43 -6.202 -3.84 4.719 4.826
3_234615 47.6364 47.5712 7.9771 7.928 15.905100000000001 744.0658 8.2719 0.055212 0.0 0.0 1.0 1.0 9.813 0.0 0.0 9.719 0.2432 0.0 5.115 5.119
3_237707 52.5071 52.4685 8.2849 8.2572 16.542099999999998 12020.9316 17.224 0.05971 0.0 0.0 1.0 1.0 6.663 0.0 0.0 6.67 0.05715 -0.0 4.889 4.89
3_281420 47.6888 47.6076 7.9131 7.861 15.7741 1991.2987 10.529 0.055187 0.0 0.0 1.0 1.0 8.742 0.0 -0.0 8.646 0.2223 -0.0 5.115 5.12
3_755719 76.8495 19.4085 9.8584 5.8939 15.7523 624.1762 12130.0 0.99995 16.6761 34.4967 0.9978 -0.9272 1.337 2.285 -0.9989 14.25 -5.563 -0.05041 4.217 8.403
3_895017 78.9506 70.7993 10.6652 7.2902 17.9554 602.6185 8.8869 0.22149 9.5659 21.2276 1.0 0.9999 46.16 2.645 -3.222 83.09 -11.06 5.161 4.175 4.334
3_899440 45.5007 42.7111 5.7956 7.8279 13.6235 7644.4756 13.617 0.1959 32.3889 0.0 0.9999 1.0 77.73 -9.125 2.544 7.963 -0.3861 -0.0 5.181 5.378
3_988377 47.0812 45.6767 8.2403 7.7383 15.9786 13709.0605 17.333 0.0481 0.0 0.0 1.0 1.0 6.833 0.0 0.0 6.818 -0.1913 -0.0 5.122 5.22
3_1183365 63.4081 63.1099 6.4662 6.371 12.8372 2339.0442 9.8698 0.23726 46.6761 33.4989 0.9999 0.9999 75.09 -6.006 5.082 58.03 -24.65 -2.13 4.52 4.528
3_1575713 121.1845 94.0482 16.6664 8.8406 25.506999999999998 480.4603 10.449 0.13488 0.0 31.893 1.0 1.0 6.792 0.0 -0.0 52.85 -10.48 2.174 3.801 4.021
3_1602587 80.6339 41.8486 15.383 6.6917 22.0747 769.6471 6585.4 0.99983 0.9604 16.4496 1.0 0.6267 0.327 -0.01048 0.009244 6.632 -0.1568 0.05768 4.132 5.352
3_1742750 48.5708 45.4386 6.2481 8.183 14.4311 868.4542 8.6039 0.29236 19.836 0.0 1.0 1.0 89.55 4.203 -1.64 9.7 2.238 0.0 5.011 5.204
3_1756129 47.3998 47.324 8.0337 7.9774 16.0111 306.747 6.6282 0.014089 0.0 0.0 1.0 1.0 10.91 -0.0 0.0 10.35 0.1413 0.0 5.125 5.13
3_1806625 45.1406 42.7214 8.5892 7.5554 16.1446 6802.0186 14.589 0.051849 0.0 0.0 1.0 1.0 7.407 -0.0 -0.0 7.685 -0.1812 -0.0 5.21 5.398
3_2149747 45.198 43.1985 8.349 7.5786 15.9276 11632.6299 16.548 0.02514 0.0 0.0 1.0 1.0 7.016 0.0 0.0 6.918 0.1512 -0.0 5.216 5.368
3_2254988 45.7834 42.419 6.4832 8.215 14.6982 69.0316 4.4112 0.23168 28.3226 0.0 0.9999 1.0 126.4 -7.555 -7.012 14.05 -1.706 0.0 5.15 5.377
3_2433522 49.3386 48.8372 8.1279 7.9516 16.0795 9609.2939 15.873 0.017037 0.0 0.0 1.0 1.0 7.074 0.0 0.0 6.734 0.1087 0.0 5.024 5.054
3_2585978 49.6769 49.2461 8.1641 7.995 16.1591 5748.1338 14.006 0.057695 0.0 0.0 1.0 1.0 7.514 -0.0 -0.0 7.509 -0.1396 -0.0 5.009 5.035
3_2944392 45.5401 45.2759 7.6472 7.5351 15.1823 10582.9863 15.633 0.060222 0.0 0.0 1.0 1.0 7.351 0.0 0.0 7.306 -0.1625 -0.0 5.236 5.257
3_3007166 30.8825 28.8114 5.9403 7.6502 13.590499999999999 802.1179 232.43 0.99283 38.6624 0.0 0.6936 1.0 11.0 -4.909 0.1213 0.1206 -0.7791 -0.0 6.555 6.881
3_3401913 51.7747 51.1385 8.4105 8.2134 16.6239 7725.8853 15.395 0.026416 0.0 0.0 1.0 1.0 7.062 0.0 -0.0 6.786 -0.1572 -0.0 4.912 4.944
3_3458234 51.0433 49.4581 8.7052 8.2172 16.9224 4297.6431 13.424 0.014991 0.0 0.0 1.0 1.0 7.521 0.0 0.0 7.274 0.1024 0.0 4.927 5.01
3_3734325 62.4741 53.3895 10.2161 9.955 20.171100000000003 790.2137 26820.0 0.99997 17.2157 10.318 0.9636 0.1519 4.428 4.833 1.071 3.903 -3.359 -0.05129 4.476 4.711
3_3741993 51.4195 51.337 8.2121 8.1668 16.3789 7803.3203 15.265 0.026851 0.0 0.0 1.0 1.0 7.11 0.0 -0.0 6.799 0.1617 0.0 4.936 4.94
3_3751199 42.6001 39.615 5.7567 7.4503 13.207 4473.4839 11.361 0.11966 39.6398 0.0 0.9998 1.0 87.91 3.974 4.49 8.143 -0.6703 0.0 5.357 5.612
3_3785360 45.3796 45.3118 7.717 7.6662 15.383199999999999 828.3118 8.2674 0.012225 0.0 0.0 1.0 1.0 9.979 -0.0 0.0 9.428 0.1127 -0.0 5.245 5.25
3_3800090 98.0625 85.4183 12.5091 8.0839 20.593 6502.4634 17.632 0.18508 9.5371 21.7646 1.0 0.9996 20.23 3.581 -0.3824 42.4 -0.3531 -6.545 3.965 4.117
4_65512 44.8661 42.1238 5.8172 7.6087 13.425899999999999 2151.4282 9.6639 0.15873 43.188 0.0 0.9983 1.0 89.32 0.6852 15.38 6.849 -0.2651 -0.0 5.217 5.433
4_169586 47.5776 46.8356 8.0171 7.7726 15.7897 13740.7686 17.179 0.038663 0.0 0.0 1.0 1.0 6.884 0.0 0.0 6.687 0.1961 -0.0 5.11 5.159
4_203802 94.7015 91.4394 9.073 8.2296 17.302599999999998 10391.4707 17.399 0.13805 16.3629 15.8544 1.0 0.9998 45.8 -6.894 -0.8 37.26 -9.673 -4.112 4.023 4.062
4_285815 54.7717 54.6728 8.5379 8.4899 17.0278 7277.2598 15.429 0.011339 0.0 0.0 1.0 1.0 6.926 0.0 -0.0 6.576 -0.07286 0.0 4.798 4.803
4_333187 109.6584 83.5379 17.4038 8.3869 25.7907 866.1635 12.355 0.19544 0.0 20.3224 1.0 0.9999 6.384 -0.0 -0.0 51.62 1.426 2.609 3.858 4.125
4_635603 30.2517 28.6077 7.3623 7.8709 15.2332 1190.5741 8.9942 0.032823 33.9408 0.0 0.95 1.0 13.27 -0.08873 0.3519 9.018 0.0 -0.0 6.651 6.926
4_682925 42.3265 39.0535 5.9362 7.6351 13.5713 1889.4824 9.7124 0.23657 19.2635 0.0 0.9997 1.0 88.52 -3.086 6.385 8.609 -1.921 0.0 5.369 5.64
4_753247 50.6364 49.8928 8.3187 8.0393 16.358 11190.207 16.769 0.059983 0.0 0.0 1.0 1.0 6.829 0.0 0.0 6.904 0.04712 -0.0 4.96 5.004
4_860019 48.8053 47.8456 8.2542 7.8992 16.1534 9459.2793 15.858 0.001302 0.0 0.0 1.0 1.0 7.071 0.0 0.0 6.767 -0.006055 -0.0 5.04 5.103
4_873412 105.6415 104.5705 9.3285 8.9501 18.2786 5926.8633 15.462 0.043467 10.9029 15.2938 0.9999 0.9999 43.1 -0.7821 -4.55 34.97 9.102 -3.082 3.942 3.953
4_1048136 45.56 43.5711 8.3972 7.6953 16.0925 7053.3145 14.684 0.040717 0.0 0.0 1.0 1.0 7.426 0.0 -0.0 7.398 -0.2093 -0.0 5.195 5.338
4_1328117 99.5294 98.0042 8.9669 8.5929 17.559800000000003 10193.21 18.02 0.22226 16.4789 8.3597 1.0 1.0 50.5 -0.03463 -1.314 42.18 0.5317 0.1561 3.987 4.002
4_1598902 50.3627 48.9345 8.5967 8.1291 16.7258 3710.6267 12.853 0.054498 0.0 0.0 1.0 1.0 7.733 0.0 -0.0 7.819 0.1469 -0.0 4.959 5.039
4_1716681 47.56 47.1322 7.9958 7.8224 15.818200000000001 2520.8435 11.197 0.05965 0.0 0.0 1.0 1.0 8.5 -0.0 0.0 8.509 0.1467 0.0 5.115 5.144
4_1946776 53.2275 51.7854 5.8234 8.4885 14.311900000000001 6967.144 14.083 0.2515 43.7379 0.0 0.9987 1.0 69.2 11.15 11.96 5.292 1.248 -0.0 4.836 4.903
4_2342759 47.0187 46.4771 7.9469 7.7404 15.6873 4302.8555 12.69 0.020234 0.0 0.0 1.0 1.0 8.015 0.0 -0.0 7.651 0.1441 0.0 5.143 5.18
4_2377523 45.9226 43.056 5.9567 7.8592 13.8159 1029.9028 8.3081 0.19615 45.5688 0.0 0.9997 1.0 98.32 -13.93 6.71 9.314 1.559 0.0 5.154 5.358
4_2380624 45.8443 45.642 7.6819 7.593 15.274899999999999 6360.1807 13.741 0.016011 0.0 0.0 1.0 1.0 7.795 0.0 -0.0 7.37 -0.1133 0.0 5.219 5.234
4_2499837 48.5243 48.4245 7.9492 7.8943 15.8435 5114.2119 13.355 0.0088436 0.0 0.0 1.0 1.0 7.737 0.0 0.0 7.309 -0.06376 0.0 5.073 5.079
4_2503121 45.8589 43.6442 8.5309 7.6669 16.1978 7365.9619 14.909 0.032429 0.0 0.0 1.0 1.0 7.324 0.0 -0.0 7.317 0.1886 0.0 5.173 5.335
4_2656782 51.3434 50.9836 8.2642 8.1406 16.4048 11573.7998 16.949 0.058506 0.0 0.0 1.0 1.0 6.777 0.0 -0.0 6.773 0.09668 -0.0 4.935 4.955
4_2661087 45.6758 45.6083 7.7357 7.6857 15.421399999999998 1002.2693 8.7048 0.04361 0.0 0.0 1.0 1.0 9.721 0.0 -0.0 9.433 0.2948 0.0 5.228 5.233
4_2697417 61.2473 58.9092 6.6877 6.0919 12.7796 13029.3135 28.757 0.7398 43.9888 18.0551 1.0 1.0 71.25 -13.78 0.08982 77.8 9.721 1.668 4.562 4.641
4_2752115 107.4426 101.7382 10.4442 8.7327 19.1769 7113.5488 17.285 0.18717 26.3319 18.2652 0.9999 0.9997 23.52 1.663 -4.86 40.9 13.41 5.421 3.917 3.974
4_2878038 44.6954 44.6178 7.6065 7.5532 15.1597 1346.5925 9.2532 0.0402 0.0 0.0 1.0 1.0 9.517 -0.0 -0.0 9.181 0.2846 0.0 5.288 5.294
4_2965417 45.6399 44.8045 7.9219 7.607 15.5289 3761.5776 12.169 0.012756 0.0 0.0 1.0 1.0 8.24 0.0 -0.0 7.876 -0.09643 -0.0 5.216 5.277
4_3082958 45.6457 44.3567 8.1873 7.6193 15.8066 1133.3564 9.1278 0.010277 0.0 0.0 1.0 1.0 9.402 0.0 0.0 9.153 -0.08968 0.0 5.204 5.301
4_3129546 45.0831 45.0245 7.5203 7.4849 15.005199999999999 12731.6973 16.254 0.063734 0.0 0.0 1.0 1.0 7.232 0.0 0.0 7.208 -0.1241 -0.0 5.269 5.274
4_3236172 53.2962 53.2158 8.5056 8.4574 16.963 1593.9087 10.489 0.015991 0.0 0.0 1.0 1.0 8.412 0.0 -0.0 8.007 -0.1225 -0.0 4.852 4.855
4_3287389 52.2027 50.7853 5.8252 8.4911 14.316299999999998 3140.9238 11.746 0.29106 27.2208 0.0 1.0 1.0 75.0 -9.002 1.098 7.072 -2.008 0.0 4.874 4.944
4_3338375 46.8815 46.7981 7.8903 7.8336 15.7239 855.2368 8.4774 0.027417 0.0 0.0 1.0 1.0 9.746 0.0 0.0 9.309 0.227 -0.0 5.156 5.161
4_3550378 54.8366 54.7393 8.5722 8.523 17.0952 4683.0464 13.866 0.056891 0.0 0.0 1.0 1.0 7.301 0.0 0.0 7.302 -0.08887 -0.0 4.795 4.799
4_3992400 47.7647 45.8455 8.6091 7.9061 16.5152 2867.2644 11.932 0.054359 0.0 0.0 1.0 1.0 8.096 0.0 -0.0 8.277 -0.1599 -0.0 5.075 5.2
4_3999118 44.5982 43.1421 8.139 7.5397 15.6787 1925.9412 10.374 0.037914 0.0 0.0 1.0 1.0 8.896 -0.0 0.0 8.824 0.2525 0.0 5.262 5.377
